…
filtered_data <- tidy_GDP_data %>%
  filter(Country %in% country_list,
         IndicatorName %in% c("Government expenditure",
                         "Exports","Imports",
                         "Government expenditure",
                         "Household expenditure",
                         "Gross capital formation",
                         "GDP"))

wider_frame <- filtered_data %>% pivot_wider(names_from=IndicatorName,values_from=gdp)
wider_frame <- wider_frame %>%
  mutate(calc_gdp=`Household expenditure`+`Gross capital formation`+`Government expenditure`+(Exports-Imports))
wider_frame %>% select(Country,year,GDP,calc_gdp)

## # A tibble: 144 x 4
##    Country year    GDP calc_gdp
##    <chr>   <chr> <dbl>    <dbl>
##  1 Germany 1970  1534.    1581.
##  2 Germany 1971  1582.    1638.
##  3 Germany 1972  1650.    1709.
##  4 Germany 1973  1729.    1779.
##  5 Germany 1974  1744.    1775.
##  6 Germany 1975  1729.    1780.
##  7 Germany 1976  1815.    1866.
##  8 Germany 1977  1876.    1927.
##  9 Germany 1978  1932.    1991.
## 10 Germany 1979  2012.    2081.
## # … with 134 more rows

What is the % difference between what you calculated as GDP and the GDP figure included in the dataframe?

# using the percent difference formula from https://www.calculatorsoup.com/calculators/algebra/percent-difference-calculator.php
wider_frame <- wider_frame %>% 
  select(Country,year,GDP,calc_gdp) %>% 
  mutate(percent_diff=round(100*abs(calc_gdp - GDP)/((calc_gdp+GDP)/2),2))
wider_frame

## # A tibble: 144 x 5
##    Country year    GDP calc_gdp percent_diff
##    <chr>   <chr> <dbl>    <dbl>        <dbl>
##  1 Germany 1970  1534.    1581.         2.99
##  2 Germany 1971  1582.    1638.         3.48
##  3 Germany 1972  1650.    1709.         3.49
##  4 Germany 1973  1729.    1779.         2.88
##  5 Germany 1974  1744.    1775.         1.76
##  6 Germany 1975  1729.    1780.         2.88
##  7 Germany 1976  1815.    1866.         2.79
##  8 Germany 1977  1876.    1927.         2.73
##  9 Germany 1978  1932.    1991.         3   
## 10 Germany 1979  2012.    2081.         3.38
## # … with 134 more rows
…
## # A tibble: 3 x 2
##   Country       mean_percent_diff
##   <chr>                     <dbl>
## 1 Germany                    1.13
## 2 India                      2.81
## 3 United States              1.26

#summarise the differences by year
wider_frame %>%
  group_by(year) %>% 
  summarise(mean_percent_diff=round(mean(percent_diff),2))

## # A tibble: 48 x 2
##    year  mean_percent_diff
##    <chr>             <dbl>
##  1 1970               2.5 
##  2 1971               3.17
##  3 1972               3.1 
##  4 1973               3.08
##  5 1974               2.72
##  6 1975               2.58
##  7 1976               3.31
##  8 1977               2.54
##  9 1978               3.28
## 10 1979               4.16
## # … with 38 more rows
…
